{
  "project_info": {
    "project_number": "467035570836",
    "firebase_url": "https://kplemigas-22270.firebaseio.com",
    "project_id": "kplemigas-22270",
    "storage_bucket": "kplemigas-22270.appspot.com"
  },
  "client": [
    {
      "client_info": {
        "mobilesdk_app_id": "1:467035570836:android:0a9424c5aa90a717",
        "android_client_info": {
          "package_name": "com.kp.lemigas"
        }
      },
      "oauth_client": [
        {
          "client_id": "467035570836-i2qen8qr8ie499gsae7k23ggfavgi112.apps.googleusercontent.com",
          "client_type": 3
        }
      ],
      "api_key": [
        {
          "current_key": "AIzaSyDzf_-pBIY0qg77huz589KUuGgsZPPf8K8"
        }
      ],
      "services": {
        "appinvite_service": {
          "other_platform_oauth_client": [
            {
              "client_id": "467035570836-i2qen8qr8ie499gsae7k23ggfavgi112.apps.googleusercontent.com",
              "client_type": 3
            }
          ]
        }
      }
    },
    {
      "client_info": {
        "mobilesdk_app_id": "1:467035570836:android:84ad2e90f1856183",
        "android_client_info": {
          "package_name": "com.kp.lemigas.beta"
        }
      },
      "oauth_client": [
        {
          "client_id": "467035570836-i2qen8qr8ie499gsae7k23ggfavgi112.apps.googleusercontent.com",
          "client_type": 3
        }
      ],
      "api_key": [
        {
          "current_key": "AIzaSyDzf_-pBIY0qg77huz589KUuGgsZPPf8K8"
        }
      ],
      "services": {
        "appinvite_service": {
          "other_platform_oauth_client": [
            {
              "client_id": "467035570836-i2qen8qr8ie499gsae7k23ggfavgi112.apps.googleusercontent.com",
              "client_type": 3
            }
          ]
        }
      }
    }
  ],
  "configuration_version": "1"
}